ID,Name,Address,Email
0,Tyler,"Some Address",tschrock52@gmail.com
1,Nick,"Another Address",nickp@gmail.com
ID,Name,Address,Email
0,Tyler,"Some Address",tschrock52@gmail.com
1,Nick,"Another Address",nickp@gmail.com
